﻿[
    {
        "Number": "1",
        "Discipline": {
            "Title": "ВП"
        },
        "Room": "ВК",
        "DayOfWeek": "Monday",
        "FirstNumerator": true,
        "FirstDenumerator": true,
        "SecondNumerator": true,
        "SecondDenumerator": true,
        "Groups": [
            "МП-30",
            "МП-34",
            "МП-35"
        ]
    },
    {
        "Number": "1",
        "Discipline": {
            "Title": "Операционные системы"
        },
        "Room": "4214",
        "DayOfWeek": "Tuesday",
        "FirstNumerator": true,
        "FirstDenumerator": false,
        "SecondNumerator": true,
        "SecondDenumerator": false,
        "Groups": [
            "МП-34"
        ]
    },
    {
        "Number": "2",
        "Discipline": {
            "Title": "Операционные системы"
        },
        "Room": "4214",
        "DayOfWeek": "Tuesday",
        "FirstNumerator": true,
        "FirstDenumerator": false,
        "SecondNumerator": true,
        "SecondDenumerator": false,
        "Groups": [
            "МП-34"
        ]
    },
    {
        "Number": "1",
        "Discipline": {
            "Title": "СУБД MS SQL"
        },
        "Room": "4212a",
        "DayOfWeek": "Tuesday",
        "FirstNumerator": false,
        "FirstDenumerator": true,
        "SecondNumerator": false,
        "SecondDenumerator": true,
        "Groups": [
            "МП-34"
        ]
    },
    {
        "Number": "2",
        "Discipline": {
            "Title": "СУБД MS SQL"
        },
        "Room": "4212a",
        "DayOfWeek": "Tuesday",
        "FirstNumerator": false,
        "FirstDenumerator": true,
        "SecondNumerator": false,
        "SecondDenumerator": true,
        "Groups": [
            "МП-34"
        ]
    },
    {
        "Number": "1",
        "Discipline": {
            "Title": "Менеджмент"
        },
        "Room": "4306",
        "DayOfWeek": "Tuesday",
        "FirstNumerator": true,
        "FirstDenumerator": false,
        "SecondNumerator": true,
        "SecondDenumerator": false,
        "Groups": [
            "МП-35"
        ]
    },
    {
        "Number": "2",
        "Discipline": {
            "Title": "НПМ"
        },
        "Room": "3240",
        "DayOfWeek": "Tuesday",
        "FirstNumerator": true,
        "FirstDenumerator": true,
        "SecondNumerator": true,
        "SecondDenumerator": true,
        "Groups": [
            "МП-30"
        ]
    },
    {
        "Number": "2",
        "Discipline": {
            "Title": "Экология"
        },
        "Room": "3336, 3340",
        "DayOfWeek": "Tuesday",
        "FirstNumerator": true,
        "FirstDenumerator": false,
        "SecondNumerator": true,
        "SecondDenumerator": false,
        "Groups": [
            "МП-35"
        ]
    },
    {
        "Number": "3",
        "Discipline": {
            "Title": "Операционные системы"
        },
        "Room": "3102",
        "DayOfWeek": "Tuesday",
        "FirstNumerator": true,
        "FirstDenumerator": true,
        "SecondNumerator": true,
        "SecondDenumerator": true,
        "Groups": [
            "МП-30",
            "МП-34",
            "МП-35"
        ]
    },
    {
        "Number": "4",
        "Discipline": {
            "Title": "Физическая культура"
        },
        "Room": "Спортзал",
        "DayOfWeek": "Tuesday",
        "FirstNumerator": true,
        "FirstDenumerator": true,
        "SecondNumerator": true,
        "SecondDenumerator": true,
        "Groups": [
            "МП-30",
            "МП-34",
            "МП-35"
        ]
    },
    {
        "Number": "5",
        "Discipline": {
            "Title": "НПМ"
        },
        "Room": "3216",
        "DayOfWeek": "Tuesday",
        "FirstNumerator": false,
        "FirstDenumerator": true,
        "SecondNumerator": false,
        "SecondDenumerator": true,
        "Groups": [
            "МП-30"
        ]
    },
    {
        "Number": "1",
        "Discipline": {
            "Title": "СУБД MS SQL"
        },
        "Room": "4212a",
        "DayOfWeek": "Wednesday",
        "FirstNumerator": true,
        "FirstDenumerator": false,
        "SecondNumerator": true,
        "SecondDenumerator": false,
        "Groups": [
            "МП-35"
        ]
    },
    {
        "Number": "2",
        "Discipline": {
            "Title": "СУБД MS SQL"
        },
        "Room": "4212a",
        "DayOfWeek": "Wednesday",
        "FirstNumerator": true,
        "FirstDenumerator": false,
        "SecondNumerator": true,
        "SecondDenumerator": false,
        "Groups": [
            "МП-35"
        ]
    },
    {
        "Number": "3",
        "Discipline": {
            "Title": "Практикум по ПП"
        },
        "Room": "4100",
        "DayOfWeek": "Wednesday",
        "FirstNumerator": true,
        "FirstDenumerator": false,
        "SecondNumerator": true,
        "SecondDenumerator": false,
        "Groups": [
            "МП-35"
        ]
    },
    {
        "Number": "4",
        "Discipline": {
            "Title": "Практикум по ПП"
        },
        "Room": "4100",
        "DayOfWeek": "Wednesday",
        "FirstNumerator": true,
        "FirstDenumerator": false,
        "SecondNumerator": true,
        "SecondDenumerator": false,
        "Groups": [
            "МП-35"
        ]
    },
    {
        "Number": "3",
        "Discipline": {
            "Title": "Основы языка Java"
        },
        "Room": "1201",
        "DayOfWeek": "Thursday",
        "FirstNumerator": true,
        "FirstDenumerator": false,
        "SecondNumerator": true,
        "SecondDenumerator": false,
        "Groups": [
            "МП-35"
        ]
    },
    {
        "Number": "4",
        "Discipline": {
            "Title": "Конструирование ПО"
        },
        "Room": "3131",
        "DayOfWeek": "Thursday",
        "FirstNumerator": true,
        "FirstDenumerator": true,
        "SecondNumerator": true,
        "SecondDenumerator": true,
        "Groups": [
            "МП-35"
        ]
    },
    {
        "Number": "5",
        "Discipline": {
            "Title": "Основы языка Java"
        },
        "Room": "4100",
        "DayOfWeek": "Thursday",
        "FirstNumerator": true,
        "FirstDenumerator": false,
        "SecondNumerator": true,
        "SecondDenumerator": false,
        "Groups": [
            "МП-35"
        ]
    },
    {
        "Number": "6",
        "Discipline": {
            "Title": "Основы языка Java"
        },
        "Room": "4100",
        "DayOfWeek": "Thursday",
        "FirstNumerator": true,
        "FirstDenumerator": false,
        "SecondNumerator": true,
        "SecondDenumerator": false,
        "Groups": [
            "МП-35"
        ]
    },
    {
        "Number": "2",
        "Discipline": {
            "Title": "МЛ и ТА"
        },
        "Room": "3220",
        "DayOfWeek": "Friday",
        "FirstNumerator": true,
        "FirstDenumerator": false,
        "SecondNumerator": true,
        "SecondDenumerator": false,
        "Groups": [
            "МП-35"
        ]
    },
    {
        "Number": "3",
        "Discipline": {
            "Title": "МЛ и ТА"
        },
        "Room": "3216",
        "DayOfWeek": "Friday",
        "FirstNumerator": true,
        "FirstDenumerator": true,
        "SecondNumerator": true,
        "SecondDenumerator": true,
        "Groups": [
            "МП-30",
            "МП-34",
            "МП-35"
        ]
    },
    {
        "Number": "4",
        "Discipline": {
            "Title": "Субд MS SQL"
        },
        "Room": "3104",
        "DayOfWeek": "Friday",
        "FirstNumerator": true,
        "FirstDenumerator": true,
        "SecondNumerator": true,
        "SecondDenumerator": true,
        "Groups": [
            "МП-30",
            "МП-34",
            "МП-35"
        ]
    }

]